Simple Iteration over Variables with `lm()` | Tanner Koomar
…
tidyr::unnest(model_dat[,-4], model_coefficient)

## # A tibble: 36 x 8
##    lhs   rhs       model  term         estimate std.error statistic     p.value
##    <fct> <fct>     <list> <chr>           <dbl>     <dbl>     <dbl>       <dbl>
##  1 am    cyl       <lm>   (Intercept)  1.31      0.280        4.68  0.0000571  
##  2 am    cyl       <lm>   cyl         -0.146     0.0435      -3.36  0.00215    
##  3 am    cyl - 1   <lm>   cyl          0.0498    0.0154       3.24  0.00284    
##  4 am    disp      <lm>   (Intercept)  0.955     0.155        6.18  0.000000855
##  5 am    disp      <lm>   disp        -0.00238   0.000593    -4.02  0.000366   
##  6 am    disp + wt <lm>   (Intercept)  1.60      0.276        5.81  0.00000266 
##  7 am    disp + wt <lm>   disp         0.000451  0.00117      0.386 0.703      
##  8 am    disp + wt <lm>   wt          -0.404     0.148       -2.73  0.0108     
##  9 am    qsec      <lm>   (Intercept)  1.55      0.890        1.74  0.0914     
## 10 am    qsec      <lm>   qsec        -0.0642    0.0496      -1.29  0.206      
## # … with 26 more rows
…
