Tidy Tuesday: University Research Funding | Tanner Koomar
…
If you take a look at this table raw, it really is quite the mess. It is kind of hard to imagine data that is less tidy:

library(tidyverse)
library(gganimate)
library(showtext) ## for google fonts
font_add_google("Dosis")
font_add_google("Comfortaa")
showtext_auto()

download.file("https://www.aaas.org/sites/default/files/2018-11/UniDisc1.xlsx", 
              "2019-05-08_UniDisc1.xlsx")
readxl::read_excel("2019-05-08_UniDisc1.xlsx")

## # A tibble: 103 x 13
##    `University R&D…  X__1  X__2  X__3  X__4  X__5  X__6  X__7  X__8  X__9
##    <chr>            <dbl> <dbl> <dbl> <dbl> <dbl> <dbl> <dbl> <dbl> <dbl>
##  1 (budget authori…   NA    NA    NA    NA    NA    NA    NA    NA    NA 
##  2 <NA>             2007  2008  2009  2010  2011  2012  2013  2014  2015 
##  3 Computer Scienc… 1696. 1709. 1837  1864. 1943. 1996. 2228. 2040. 2051.
##  4 <NA>               NA    NA    NA    NA    NA    NA    NA    NA    NA 
##  5 Environmental S…   NA    NA    NA    NA    NA    NA    NA    NA    NA 
##  6 Atmospheric Sci…  529.  491.  478.  488.  537.  522.  531.  531.  600.
##  7 Earth Sciences   1080. 1104. 1170. 1233. 1274. 1280. 1253. 1226. 1164.
##  8 Oceanography     1176. 1220. 1237. 1163. 1170. 1123  1132. 1133. 1098.
##  9 Other Environme…  393.  434.  470   520.  535.  550.  524.  524.  533.
## 10 Total Environme… 3178. 3250. 3356. 3404  3516. 3475. 3441. 3414. 3394.
## # ... with 93 more rows, and 3 more variables: X__10 <dbl>, X__11 <dbl>,
## #   X__12 <chr>
…
